…
Exploring the packages

``` r
## count some things! inspiration
##   * tabulate by LibPath, Priority, or both
##   * what proportion need compilation?
##   * how break down re: version of R they were built on

pckg_list %>% 
  dplyr::group_by(Version) %>% 
  dplyr::summarise(count = dplyr::n()) %>% 
  dplyr::arrange(desc(Version))
```

    ## # A tibble: 108 x 2
    ##    Version  count
    ##    <chr>    <int>
    ##  1 7.3-51.4     1
    ##  2 7.3-15       1
    ##  3 7.3-12       1
    ##  4 7.3-11       1
    ##  5 7.0.2        1
    ##  6 7.0-1        1
    ##  7 4.1-15       1
    ##  8 4.0          1
    ##  9 3.6.1       15
    ## 10 3.4.1        1
    ## # ... with 98 more rows
…
